{
  "id": "fake-impact",
  "type": "ImpactAssessment",
  "allocationMethod": "none required",
  "country": {
    "@id": "GADM-NPL",
    "@type": "Term",
    "name": "Nepal"
  },
  "endDate": "2010",
  "functionalUnitQuantity": 1,
  "product": {
    "@type": "Product",
    "term": {
      "@id": "wheatGrain",
      "@type": "Term",
      "termType": "crop"
    }
  },
  "dataPrivate": true,
  "impacts": [
    {
      "@type": "Indicator",
      "term": {
        "@id": "damageToMarineEcosystemsMarineEcotoxicity",
        "@type": "Term",
        "termType": "characterisedIndicator"
      },
      "methodModel": {
        "@id": "lcImpactAllEffects100Years",
        "@type": "Term",
        "termType": "model"
      },
      "value": 0.5
    },
    {
      "@type": "Indicator",
      "term": {
        "@id": "damageToMarineEcosystemsMarineEutrophication",
        "@type": "Term",
        "termType": "characterisedIndicator"
      },
      "methodModel": {
        "@id": "lcImpactAllEffects100Years",
        "@type": "Term",
        "termType": "model"
      },
      "value": 0.2
    },
    {
      "@type": "Indicator",
      "term": {
        "@id": "damageToMarineEcosystemsMarineEcotoxicity",
        "@type": "Term",
        "termType": "characterisedIndicator"
      },
      "methodModel": {
        "@id": "lcImpactAllEffectsInfinite",
        "@type": "Term",
        "termType": "model"
      },
      "value": 0.5
    },
    {
      "@type": "Indicator",
      "term": {
        "@id": "damageToMarineEcosystemsMarineEutrophication",
        "@type": "Term",
        "termType": "characterisedIndicator"
      },
      "methodModel": {
        "@id": "lcImpactAllEffectsInfinite",
        "@type": "Term",
        "termType": "model"
      },
      "value": 0.2
    },
    {
      "@type": "Indicator",
      "term": {
        "@id": "damageToMarineEcosystemsMarineEcotoxicity",
        "@type": "Term",
        "termType": "characterisedIndicator"
      },
      "methodModel": {
        "@id": "lcImpactCertainEffects100Years",
        "@type": "Term",
        "termType": "model"
      },
      "value": 0.5
    },
    {
      "@type": "Indicator",
      "term": {
        "@id": "damageToMarineEcosystemsMarineEutrophication",
        "@type": "Term",
        "termType": "characterisedIndicator"
      },
      "methodModel": {
        "@id": "lcImpactCertainEffects100Years",
        "@type": "Term",
        "termType": "model"
      },
      "value": 0.2
    },
    {
      "@type": "Indicator",
      "term": {
        "@id": "damageToMarineEcosystemsMarineEcotoxicity",
        "@type": "Term",
        "termType": "characterisedIndicator"
      },
      "methodModel": {
        "@id": "lcImpactCertainEffectsInfinite",
        "@type": "Term",
        "termType": "model"
      },
      "value": 0.5
    },
    {
      "@type": "Indicator",
      "term": {
        "@id": "damageToMarineEcosystemsMarineEutrophication",
        "@type": "Term",
        "termType": "characterisedIndicator"
      },
      "methodModel": {
        "@id": "lcImpactCertainEffectsInfinite",
        "@type": "Term",
        "termType": "model"
      },
      "value": 0.2
    }
  ]
}
