{
  "@type": "Indicator",
  "term": {
    "@type": "Term",
    "@id": "marineAquaticEcotoxicityPotential14Dcbeq"
  },
  "methodModel": {
    "@type": "Term",
    "@id": "recipe2016Egalitarian"
  },
  "value": 0.0003360788688044417
}
