{
  "@type": "Indicator",
  "term": {
    "@type": "Term",
    "@id": "damageToHumanHealthClimateChange"
  },
  "methodModel": {
    "@type": "Term",
    "@id": "lcImpactCertainEffects100Years"
  },
  "value": 2.1852584222520334e-7
}
