{
  "@type": "Indicator",
  "term": {
    "@type": "Term",
    "@id": "damageToHumanHealthPhotochemicalOzoneFormation"
  },
  "methodModel": {
    "@type": "Term",
    "@id": "lcImpactAllEffects100Years"
  },
  "value": 1.118917382426345e-9
}
