[
  {
    "term": {
      "@id": "co2ToAirUreaHydrolysis",
      "@type": "Term"
    },
    "value": [
      104.07874999999999
    ],
    "methodTier": "tier 1",
    "@type": "Emission",
    "methodModel": {
      "@type": "Term",
      "@id": "ipcc2019"
    },
    "statsDefinition": "modelled"
  }
]
