[
  {
    "@type": "Product",
    "term": {
      "@type": "Term",
      "@id": "belowGroundCropResidue"
    },
    "value": [
      1511.8380479999998
    ],
    "economicValueShare": 0,
    "properties": [
      {
        "@type": "Property",
        "term": {
          "@type": "Term",
          "@id": "nitrogenContent",
          "units": "%"
        },
        "value": 0.8999999999999999
      }
    ]
  },
  {
    "@type": "Product",
    "term": {
      "@type": "Term",
      "@id": "aboveGroundCropResidueTotal"
    },
    "properties": [
      {
        "@type": "Property",
        "term": {
          "@type": "Term",
          "@id": "nitrogenContent",
          "units": "%"
        },
        "value": 0.6
      }
    ],
    "value": [
      3996.8052
    ]
  },
  {
    "@type": "Product",
    "term": {
      "@type": "Term",
      "@id": "aboveGroundCropResidueLeftOnField"
    },
    "value": [
      140.76263157894752
    ]
  },
  {
    "@type": "Product",
    "term": {
      "@type": "Term",
      "@id": "aboveGroundCropResidueRemoved"
    },
    "value": [
      3796.96494
    ]
  },
  {
    "@type": "Product",
    "term": {
      "@type": "Term",
      "@id": "aboveGroundCropResidueBurnt"
    },
    "value": [
      0
    ]
  }
]
