[
  {
    "term": {
      "@type": "Term",
      "name": "Excreta, poultry (kg mass)",
      "termType": "excreta",
      "@id": "excretaPoultryKgMass",
      "units": "kg"
    },
    "@type": "Product",
    "value": [
      1
    ]
  },
  {
    "term": {
      "@type": "Term",
      "name": "Excreta, poultry (kg VS)",
      "termType": "excreta",
      "@id": "excretaPoultryKgVs",
      "units": "kg VS"
    },
    "@type": "Product",
    "value": [
      1
    ]
  },
  {
    "term": {
      "@type": "Term",
      "@id": "excretaPoultryKgN"
    },
    "@type": "Product",
    "properties": [
      {
        "term": {
          "@type": "Term",
          "@id": "volatileSolidsContent",
          "units": "%"
        },
        "value": 1490.6951744738524,
        "@type": "Property"
      }
    ],
    "value": [
      0.9970742581677885
    ]
  }
]
