{
  "id": "fake-cycle",
  "type": "Cycle",
  "functionalUnit": "1 ha",
  "defaultMethodClassification": "physical measurement",
  "defaultMethodClassificationDescription": "Experiment on a farmers field, where all data were measured.",
  "completeness": {
    "fertiliser": true,
    "soilAmendments": true,
    "pesticidesAntibiotics": true,
    "water": true,
    "electricityFuel": true,
    "products": true,
    "cropResidue": true,
    "excreta": true,
    "other": true,
    "material": true,
    "animalFeed": true,
    "transport": false,
    "waste": false,
    "liveAnimals": true,
    "operations": false,
    "@type": "Completeness"
  },
  "dataPrivate": true,
  "endDate": "2012",
  "cycleDuration": 365,
  "site": {
    "id": "fake-site",
    "type": "Site"
  }
}
