[
  {
    "@type": "Emission",
    "term": {
      "@type": "Term",
      "@id": "ch4ToAirExcreta"
    },
    "methodModel": {
      "@type": "Term",
      "@id": "ipcc2019"
    },
    "value": [
      0
    ],
    "methodTier": "tier 2",
    "statsDefinition": "modelled"
  }
]
