[
  {
    "@type": "Indicator",
    "term": {
      "@type": "Term",
      "name": "CO2, to air, soil carbon stock change, management change",
      "termType": "emission",
      "@id": "co2ToAirSoilCarbonStockChangeManagementChange",
      "units": "kg CO2"
    },
    "value": 0.08758620689655172,
    "methodModel": {
      "@id": "emepEea2019",
      "@type": "Term",
      "name": "EMEA-EEA (2019)",
      "termType": "model"
    }
  },
  {
    "@type": "Indicator",
    "term": {
      "@type": "Term",
      "name": "N2O, to air, inorganic fertiliser, direct",
      "termType": "emission",
      "@id": "n2OToAirInorganicFertiliserDirect",
      "units": "kg N2O"
    },
    "value": 0.00019787241379310344,
    "methodModel": {
      "@type": "Term",
      "name": "Closed chamber, static",
      "termType": "methodEmissionResourceUse",
      "@id": "closedChamberStatic"
    }
  },
  {
    "@type": "Indicator",
    "term": {
      "@type": "Term",
      "@id": "n2OToAirInorganicFertiliserIndirect",
      "name": "N2O, to air, inorganic fertiliser, indirect",
      "units": "kg N2O",
      "termType": "emission"
    },
    "value": 0.00006976981,
    "methodModel": {
      "@type": "Term",
      "@id": "ipcc2006",
      "name": "IPCC (2006)",
      "termType": "model"
    }
  },
  {
    "@type": "Indicator",
    "term": {
      "@type": "Term",
      "name": "CO2, to air, urea hydrolysis",
      "termType": "emission",
      "@id": "co2ToAirUreaHydrolysis",
      "units": "kg CO2"
    },
    "value": 0.03793103448275862,
    "methodModel": {
      "@id": "emepEea2019",
      "@type": "Term",
      "name": "EMEA-EEA (2019)",
      "termType": "model"
    }
  },
  {
    "@type": "Indicator",
    "term": {
      "@type": "Term",
      "name": "N2O, to air, crop residue decomposition, direct",
      "termType": "emission",
      "@id": "n2OToAirCropResidueDecompositionDirect",
      "units": "kg N2O"
    },
    "value": 0.000009258620689655172,
    "methodModel": {
      "@id": "emepEea2019",
      "@type": "Term",
      "name": "EMEA-EEA (2019)",
      "termType": "model"
    }
  },
  {
    "@type": "Indicator",
    "term": {
      "@type": "Term",
      "@id": "co2ToAirFuelCombustion",
      "name": "CO2, to air, fuel combustion",
      "units": "kg CO2",
      "termType": "emission"
    },
    "value": 0.019837641379310343,
    "methodModel": {
      "@id": "emepEea2019",
      "@type": "Term",
      "name": "EMEA-EEA (2019)",
      "termType": "model"
    }
  },
  {
    "@type": "Indicator",
    "term": {
      "@type": "Term",
      "@id": "co2ToAirLimeHydrolysis",
      "name": "CO2, to air, lime hydrolysis",
      "units": "kg CO2",
      "termType": "emission"
    },
    "value": 0,
    "methodModel": {
      "@type": "Term",
      "@id": "ipcc2006",
      "name": "IPCC (2006)",
      "termType": "model"
    }
  },
  {
    "@type": "Indicator",
    "term": {
      "@type": "Term",
      "@id": "n2OToAirFuelCombustionDirect",
      "name": "N2O, to air, fuel combustion",
      "units": "kg N2O",
      "termType": "emission"
    },
    "value": 8.510786206896551e-7,
    "methodModel": {
      "@type": "Term",
      "@id": "emepEea2019",
      "name": "EMEA-EEA (2019)",
      "termType": "model"
    }
  },
  {
    "@type": "Indicator",
    "term": {
      "@type": "Term",
      "@id": "noxToAirFuelCombustion",
      "name": "NOx, to air, fuel combustion",
      "units": "kg NOx",
      "termType": "emission"
    },
    "value": 0.00020419003172413792,
    "methodModel": {
      "@type": "Term",
      "@id": "emepEea2019",
      "name": "EMEA-EEA (2019)",
      "termType": "model"
    }
  },
  {
    "@type": "Indicator",
    "term": {
      "@type": "Term",
      "@id": "so2ToAirFuelCombustion",
      "name": "SO2, to air, fuel combustion",
      "units": "kg SO2",
      "termType": "emission"
    },
    "value": 0.000012515862068965518,
    "methodModel": {
      "@type": "Term",
      "@id": "emepEea2019",
      "name": "EMEA-EEA (2019)",
      "termType": "model"
    }
  },
  {
    "@type": "Indicator",
    "term": {
      "@type": "Term",
      "@id": "n2OToAirOrganicFertiliserDirect",
      "name": "N2O, to air, organic fertiliser, direct",
      "units": "kg N2O",
      "termType": "emission"
    },
    "value": 0,
    "methodModel": {
      "@type": "Term",
      "@id": "stehfestBouwman2006",
      "name": "Stehfest & Bouwman (2006)",
      "termType": "model"
    }
  },
  {
    "@type": "Indicator",
    "term": {
      "@type": "Term",
      "@id": "n2OToAirCropResidueBurningDirect",
      "name": "N2O, to air, crop residue burning, direct",
      "units": "kg N2O",
      "termType": "emission"
    },
    "value": 0.0000791844827586207,
    "methodModel": {
      "@type": "Term",
      "@id": "ipcc2006",
      "name": "IPCC (2006)",
      "termType": "model"
    }
  },
  {
    "@type": "Indicator",
    "term": {
      "@type": "Term",
      "@id": "n2OToAirExcretaDirect",
      "name": "N2O, to air, excreta, direct",
      "units": "kg N2O",
      "termType": "emission"
    },
    "value": 0,
    "methodModel": {
      "@type": "Term",
      "@id": "stehfestBouwman2006",
      "name": "Stehfest & Bouwman (2006)",
      "termType": "model"
    }
  },
  {
    "@type": "Indicator",
    "term": {
      "@type": "Term",
      "@id": "nh3ToAirCropResidueBurning",
      "name": "NH3, to air, crop residue burning",
      "units": "kg NH3",
      "termType": "emission"
    },
    "value": 0.0024547189655172415,
    "methodModel": {
      "@type": "Term",
      "@id": "ipcc2006",
      "name": "IPCC (2006)",
      "termType": "model"
    }
  },
  {
    "@type": "Indicator",
    "term": {
      "@type": "Term",
      "@id": "nh3ToAirCropResidueDecomposition",
      "name": "NH3, to air, crop residue decomposition",
      "units": "kg NH3",
      "termType": "emission"
    },
    "value": 0,
    "methodModel": {
      "@type": "Term",
      "@id": "deRuijterEtAl2010",
      "name": "de Ruijter et al (2010)",
      "termType": "model"
    }
  },
  {
    "@type": "Indicator",
    "term": {
      "@type": "Term",
      "@id": "nh3ToAirInorganicFertiliser",
      "name": "NH3, to air, inorganic fertiliser",
      "units": "kg NH3",
      "termType": "emission"
    },
    "value": 0.003837931034482759,
    "methodModel": {
      "@type": "Term",
      "@id": "europeanEnvironmentAgency2016",
      "name": "European Environment Agency (2016)",
      "termType": "model"
    }
  },
  {
    "@type": "Indicator",
    "term": {
      "@type": "Term",
      "@id": "nh3ToAirOrganicFertiliser",
      "name": "NH3, to air, organic fertiliser",
      "units": "kg NH3",
      "termType": "emission"
    },
    "value": 0,
    "methodModel": {
      "@type": "Term",
      "@id": "webbEtAl2012AndSintermannEtAl2012",
      "name": "Webb et al (2012) and Sintermann et al (2012)",
      "termType": "model"
    }
  },
  {
    "@type": "Indicator",
    "term": {
      "@type": "Term",
      "@id": "no3ToGroundwaterInorganicFertiliser",
      "name": "NO3, to groundwater, inorganic fertiliser",
      "units": "kg NO3",
      "termType": "emission"
    },
    "value": 0.00715895155862069,
    "methodModel": {
      "@type": "Term",
      "@id": "pooreNemecek2018",
      "name": "Poore & Nemecek (2018)",
      "termType": "model"
    }
  },
  {
    "@type": "Indicator",
    "term": {
      "@type": "Term",
      "@id": "no3ToGroundwaterOrganicFertiliser",
      "name": "NO3, to groundwater, organic fertiliser",
      "units": "kg NO3",
      "termType": "emission"
    },
    "value": 0,
    "methodModel": {
      "@type": "Term",
      "@id": "pooreNemecek2018",
      "name": "Poore & Nemecek (2018)",
      "termType": "model"
    }
  },
  {
    "@type": "Indicator",
    "term": {
      "@type": "Term",
      "@id": "no3ToGroundwaterExcreta",
      "name": "NO3, to groundwater, excreta",
      "units": "kg NO3",
      "termType": "emission"
    },
    "value": 0,
    "methodModel": {
      "@type": "Term",
      "@id": "pooreNemecek2018",
      "name": "Poore & Nemecek (2018)",
      "termType": "model"
    }
  },
  {
    "@type": "Indicator",
    "term": {
      "@type": "Term",
      "@id": "no3ToGroundwaterCropResidueDecomposition",
      "name": "NO3, to groundwater, crop residue decomposition",
      "units": "kg NO3",
      "termType": "emission"
    },
    "value": 0.00026094378431034483,
    "methodModel": {
      "@type": "Term",
      "@id": "pooreNemecek2018",
      "name": "Poore & Nemecek (2018)",
      "termType": "model"
    }
  },
  {
    "@type": "Indicator",
    "term": {
      "@type": "Term",
      "@id": "noxToAirCropResidueDecomposition",
      "name": "NOx, to air, crop residue decomposition",
      "units": "kg NOx",
      "termType": "emission"
    },
    "value": 0.000005575206562068966,
    "methodModel": {
      "@type": "Term",
      "@id": "stehfestBouwman2006",
      "name": "Stehfest & Bouwman (2006)",
      "termType": "model"
    }
  },
  {
    "@type": "Indicator",
    "term": {
      "@type": "Term",
      "@id": "noxToAirInorganicFertiliser",
      "name": "NOx, to air, inorganic fertiliser",
      "units": "kg NOx",
      "termType": "emission"
    },
    "value": 0.00015295491255172414,
    "methodModel": {
      "@type": "Term",
      "@id": "stehfestBouwman2006",
      "name": "Stehfest & Bouwman (2006)",
      "termType": "model"
    }
  },
  {
    "@type": "Indicator",
    "term": {
      "@type": "Term",
      "@id": "noxToAirOrganicFertiliser",
      "name": "NOx, to air, organic fertiliser",
      "units": "kg NOx",
      "termType": "emission"
    },
    "value": 0,
    "methodModel": {
      "@type": "Term",
      "@id": "stehfestBouwman2006",
      "name": "Stehfest & Bouwman (2006)",
      "termType": "model"
    }
  },
  {
    "@type": "Indicator",
    "term": {
      "@type": "Term",
      "@id": "noxToAirExcreta",
      "name": "NOx, to air, excreta",
      "units": "kg NOx",
      "termType": "emission"
    },
    "value": 0,
    "methodModel": {
      "@type": "Term",
      "@id": "stehfestBouwman2006",
      "name": "Stehfest & Bouwman (2006)",
      "termType": "model"
    }
  },
  {
    "@type": "Indicator",
    "term": {
      "@type": "Term",
      "@id": "noxToAirCropResidueBurning",
      "name": "NOx, to air, crop residue burning",
      "units": "kg NOx",
      "termType": "emission"
    },
    "value": 0.0035180534482758623,
    "methodModel": {
      "@type": "Term",
      "@id": "ipcc2006",
      "name": "IPCC (2006)",
      "termType": "model"
    }
  },
  {
    "@type": "Indicator",
    "term": {
      "@type": "Term",
      "@id": "ch4ToAirCropResidueBurning",
      "name": "CH4, to air, crop residue burning",
      "units": "kg CH4",
      "termType": "emission"
    },
    "value": 0.006583624137931034,
    "methodModel": {
      "@type": "Term",
      "@id": "ipcc2006",
      "name": "IPCC (2006)",
      "termType": "model"
    }
  },
  {
    "@type": "Indicator",
    "term": {
      "@type": "Term",
      "@id": "nh3ToAirInputsProduction",
      "name": "NH3, to air, inputs production",
      "units": "kg NH3",
      "termType": "emission"
    },
    "value": 0.00008565937548275862,
    "methodModel": {
      "@type": "Term",
      "@id": "ecoinventV3",
      "name": "ecoinvent v3",
      "termType": "model"
    }
  },
  {
    "@type": "Indicator",
    "term": {
      "@type": "Term",
      "@id": "co2ToAirInputsProduction",
      "name": "CO2, to air, inputs production",
      "units": "kg CO2",
      "termType": "emission"
    },
    "value": 0.07909850920689655,
    "methodModel": {
      "@type": "Term",
      "@id": "ecoinventV3",
      "name": "ecoinvent v3",
      "termType": "model"
    }
  },
  {
    "@type": "Indicator",
    "term": {
      "@type": "Term",
      "@id": "n2OToAirInputsProduction",
      "name": "N2O, to air, inputs production",
      "units": "kg N2O",
      "termType": "emission"
    },
    "value": 0.000001530734604137931,
    "methodModel": {
      "@type": "Term",
      "@id": "ecoinventV3",
      "name": "ecoinvent v3",
      "termType": "model"
    }
  },
  {
    "@type": "Indicator",
    "term": {
      "@type": "Term",
      "@id": "ch4ToAirInputsProductionFossil",
      "name": "CH4, to air, inputs production, fossil",
      "units": "kg CH4",
      "termType": "emission"
    },
    "value": 0.00022267365293103446,
    "methodModel": {
      "@type": "Term",
      "@id": "ecoinventV3",
      "name": "ecoinvent v3",
      "termType": "model"
    }
  },
  {
    "@type": "Indicator",
    "term": {
      "@type": "Term",
      "@id": "ch4ToAirInputsProductionNonFossil",
      "name": "CH4, to air, inputs production, non-fossil",
      "units": "kg CH4",
      "termType": "emission"
    },
    "value": 0.00000116784845,
    "methodModel": {
      "@type": "Term",
      "@id": "ecoinventV3",
      "name": "ecoinvent v3",
      "termType": "model"
    }
  },
  {
    "@type": "Indicator",
    "term": {
      "@type": "Term",
      "@id": "noxToAirInputsProduction",
      "name": "NOx, to air, inputs production",
      "units": "kg NOx",
      "termType": "emission"
    },
    "value": 0.00011535990955172414,
    "methodModel": {
      "@type": "Term",
      "@id": "ecoinventV3",
      "name": "ecoinvent v3",
      "termType": "model"
    }
  },
  {
    "@type": "Indicator",
    "term": {
      "@type": "Term",
      "@id": "so2ToAirInputsProduction",
      "name": "SO2, to air, inputs production",
      "units": "kg SO2",
      "termType": "emission"
    },
    "value": 0.00020689655172413793,
    "methodModel": {
      "@type": "Term",
      "@id": "ecoinventV3",
      "name": "ecoinvent v3",
      "termType": "model"
    },
    "inputs": [
      {
        "@type": "Term",
        "@id": "wheatGrain",
        "name": "Wheat, grain",
        "termType": "crop"
      }
    ]
  },
  {
    "@type": "Indicator",
    "term": {
      "@type": "Term",
      "@id": "so2ToAirInputsProduction",
      "name": "SO2, to air, inputs production",
      "units": "kg SO2",
      "termType": "emission"
    },
    "value": 0.00041379310344827585,
    "methodModel": {
      "@type": "Term",
      "@id": "ecoinventV3",
      "name": "ecoinvent v3",
      "termType": "model"
    },
    "inputs": [
      {
        "@type": "Term",
        "@id": "maizeGrain",
        "name": "Maize, grain",
        "termType": "crop"
      }
    ]
  },
  {
    "@type": "Indicator",
    "term": {
      "@type": "Term",
      "@id": "so2ToAirInputsProduction",
      "name": "SO2, to air, inputs production",
      "units": "kg SO2",
      "termType": "emission"
    },
    "value": 0.0006206896551724138,
    "methodModel": {
      "@type": "Term",
      "@id": "ecoinventV3",
      "name": "ecoinvent v3",
      "termType": "model"
    }
  },
  {
    "@type": "Indicator",
    "term": {
      "@type": "Term",
      "@id": "so2ToAirInputsProduction",
      "name": "SO2, to air, inputs production",
      "units": "kg SO2",
      "termType": "emission"
    },
    "value": 0.0006206896551724138,
    "methodModel": {
      "@type": "Term",
      "@id": "salca",
      "name": "SALCA",
      "termType": "model"
    }
  },
  {
    "@type": "Indicator",
    "term": {
      "@type": "Term",
      "@id": "bromochlorodifluoromethaneToAirInputsProduction",
      "name": "Bromochlorodifluoromethane, to air, inputs production",
      "units": "kg CBrClF2",
      "termType": "emission"
    },
    "value": 3.317591826206897e-10,
    "methodModel": {
      "@type": "Term",
      "@id": "ecoinventV3",
      "name": "ecoinvent v3",
      "termType": "model"
    }
  },
  {
    "@type": "Indicator",
    "term": {
      "@type": "Term",
      "@id": "chlorodifluoromethaneToAirInputsProduction",
      "name": "Chlorodifluoromethane, to air, inputs production",
      "units": "kg CHClF2",
      "termType": "emission"
    },
    "value": 1.5229317327586208e-9,
    "methodModel": {
      "@type": "Term",
      "@id": "ecoinventV3",
      "name": "ecoinvent v3",
      "termType": "model"
    }
  },
  {
    "@type": "Indicator",
    "term": {
      "@type": "Term",
      "@id": "dichlorodifluoromethaneToAirInputsProduction",
      "name": "Dichlorodifluoromethane, to air, inputs production",
      "units": "kg CCl2F2",
      "termType": "emission"
    },
    "value": 4.732454744827586e-12,
    "methodModel": {
      "@type": "Term",
      "@id": "ecoinventV3",
      "name": "ecoinvent v3",
      "termType": "model"
    }
  },
  {
    "@type": "Indicator",
    "term": {
      "@type": "Term",
      "@id": "112TrichlorotrifluoroethaneToAirInputsProduction",
      "name": "1,1,2-Trichlorotrifluoroethane, to air, inputs production",
      "units": "kg C2Cl3F3",
      "termType": "emission"
    },
    "value": 8.552899834482758e-12,
    "methodModel": {
      "@type": "Term",
      "@id": "ecoinventV3",
      "name": "ecoinvent v3",
      "termType": "model"
    }
  },
  {
    "@type": "Indicator",
    "term": {
      "@type": "Term",
      "@id": "11DichlorotetrafluoroethaneToAirInputsProduction",
      "name": "1,1-Dichlorotetrafluoroethane, to air, inputs production",
      "units": "kg C2Cl2F4",
      "termType": "emission"
    },
    "value": 1.9656274893103448e-10,
    "methodModel": {
      "@type": "Term",
      "@id": "ecoinventV3",
      "name": "ecoinvent v3",
      "termType": "model"
    }
  },
  {
    "@type": "Indicator",
    "term": {
      "@type": "Term",
      "@id": "1112TetrafluoroethaneToAirInputsProduction",
      "name": "1,1,1,2-Tetrafluoroethane, to air, inputs production",
      "units": "kg C2H2F4",
      "termType": "emission"
    },
    "value": 9.677977013793104e-12,
    "methodModel": {
      "@type": "Term",
      "@id": "ecoinventV3",
      "name": "ecoinvent v3",
      "termType": "model"
    }
  },
  {
    "@type": "Indicator",
    "term": {
      "@type": "Term",
      "@id": "pErosionSoilFlux",
      "name": "P, erosion, soil flux",
      "units": "kg P",
      "termType": "emission"
    },
    "value": 0.000055055283482758623,
    "methodModel": {
      "@type": "Term",
      "@id": "schererPfister2015",
      "name": "Scherer & Pfister (2015)",
      "termType": "model"
    }
  },
  {
    "@type": "Indicator",
    "term": {
      "@type": "Term",
      "@id": "pToGroundwaterSoilFlux",
      "name": "P, to groundwater, soil flux",
      "units": "kg P",
      "termType": "emission"
    },
    "value": 0,
    "methodModel": {
      "@type": "Term",
      "@id": "salca",
      "name": "SALCA",
      "termType": "model"
    }
  },
  {
    "@type": "Indicator",
    "term": {
      "@type": "Term",
      "@id": "pToSurfaceWaterSoilFlux",
      "name": "P, to surface water, soil flux",
      "units": "kg P",
      "termType": "emission"
    },
    "value": 0.0003448275862068965,
    "methodModel": {
      "@type": "Term",
      "@id": "salca",
      "name": "SALCA",
      "termType": "model"
    }
  },
  {
    "@type": "Indicator",
    "term": {
      "@type": "Term",
      "@id": "pToDrainageWaterSoilFlux",
      "name": "P, to drainage water, soil flux",
      "units": "kg P",
      "termType": "emission"
    },
    "value": 0.00014482758620689654,
    "methodModel": {
      "@type": "Term",
      "@id": "salca",
      "name": "SALCA",
      "termType": "model"
    }
  },
  {
    "@type": "Indicator",
    "term": {
      "@type": "Term",
      "@id": "nErosionSoilFlux",
      "name": "N, erosion, soil flux",
      "units": "kg N",
      "termType": "emission"
    },
    "value": 0.00009972829679310344,
    "methodModel": {
      "@type": "Term",
      "@id": "schererPfister2015",
      "name": "Scherer & Pfister (2015)",
      "termType": "model"
    }
  },
  {
    "@type": "Indicator",
    "term": {
      "@type": "Term",
      "@id": "n2OToAirOrganicFertiliserIndirect",
      "name": "N2O, to air, organic fertiliser, indirect",
      "units": "kg N2O",
      "termType": "emission"
    },
    "value": 0,
    "methodModel": {
      "@type": "Term",
      "@id": "ipcc2006",
      "name": "IPCC (2006)",
      "termType": "model"
    }
  },
  {
    "@type": "Indicator",
    "term": {
      "@type": "Term",
      "@id": "n2OToAirExcretaIndirect",
      "name": "N2O, to air, excreta, indirect",
      "units": "kg N2O",
      "termType": "emission"
    },
    "value": 0,
    "methodModel": {
      "@type": "Term",
      "@id": "ipcc2006",
      "name": "IPCC (2006)",
      "termType": "model"
    }
  },
  {
    "@type": "Indicator",
    "term": {
      "@type": "Term",
      "@id": "n2OToAirCropResidueDecompositionIndirect",
      "name": "N2O, to air, crop residue decomposition, indirect",
      "units": "kg N2O",
      "termType": "emission"
    },
    "value": 7.354962820689655e-7,
    "methodModel": {
      "@type": "Term",
      "@id": "ipcc2006",
      "name": "IPCC (2006)",
      "termType": "model"
    }
  },
  {
    "@type": "Indicator",
    "term": {
      "@type": "Term",
      "@id": "po43ToGroundwaterInorganicFertiliser",
      "name": "PO43-, to groundwater, inorganic fertiliser",
      "units": "kg PO43-",
      "termType": "emission"
    },
    "value": 0.000042413793103448274,
    "methodModel": {
      "@type": "Term",
      "@id": "ipcc2006",
      "name": "IPCC (2006)",
      "termType": "model"
    }
  },
  {
    "@type": "Indicator",
    "term": {
      "@type": "Term",
      "@id": "pm25ToAirFuelCombustion",
      "termType": "emission"
    },
    "value": 0.000042413793103448274,
    "methodModel": {
      "@type": "Term",
      "@id": "ipcc2006",
      "name": "IPCC (2006)",
      "termType": "model"
    }
  }
]
