{
  "id": "fake-cycle",
  "type": "Cycle",
  "name": "fake cycle",
  "functionalUnit": "1 ha",
  "defaultSource": {
    "id": "fake-source",
    "type": "Source"
  },
  "dataPrivate": false,
  "endDate": "2009",
  "cycleDuration": 365,
  "site": {
    "id": "fake-site",
    "type": "Site",
    "country": {
      "@id": "GADM-BRA",
      "@type": "Term",
      "name": "Brazil"
    }
  },
  "products": [
    {
      "term": {
        "@id": "wheatGrain",
        "name": "Wheat, grain",
        "@type": "Term",
        "termType": "crop"
      },
      "value": [
        2231.5
      ],
      "properties": [
        {
          "term": {
            "@id": "dryMatter",
            "@type": "Term",
            "units": "%"
          },
          "value": 88,
          "@type": "Property"
        }
      ],
      "primary": true,
      "@type": "Product"
    }
  ],
  "practices": [
    {
      "@type": "Practice",
      "term": {
        "@id": "residueRemoved",
        "@type": "Term"
      },
      "value": [
        0
      ]
    },
    {
      "@type": "Practice",
      "term": {
        "@id": "residueIncorporated",
        "@type": "Term"
      },
      "value": [
        15
      ]
    },
    {
      "@type": "Practice",
      "term": {
        "@id": "residueIncorporatedLessThan30DaysBeforeCultivation",
        "@type": "Term"
      },
      "value": [
        5
      ]
    },
    {
      "@type": "Practice",
      "term": {
        "@id": "residueIncorporatedMoreThan30DaysBeforeCultivation",
        "@type": "Term"
      },
      "value": [
        5
      ]
    },
    {
      "@type": "Practice",
      "term": {
        "@id": "residueBurnt",
        "@type": "Term"
      },
      "value": [
        0
      ]
    },
    {
      "@type": "Practice",
      "term": {
        "@id": "residueLeftOnField",
        "@type": "Term"
      },
      "value": [
        45
      ]
    }
  ],
  "completeness": {
    "@type": "Completeness",
    "electricityFuel": true,
    "material": true,
    "fertiliser": true,
    "other": true,
    "pesticidesAntibiotics": true,
    "soilAmendments": true,
    "water": true,
    "products": true,
    "cropResidue": false,
    "animalFeed": true,
    "transport": false,
    "excreta": true,
    "waste": true,
    "liveAnimals": true,
    "operations": true
  },
  "defaultMethodClassification": "modelled",
  "defaultMethodClassificationDescription": "description"
}
