[
  {
    "@type": "Practice",
    "term": {
      "@type": "Term",
      "@id": "nurseryDensity"
    },
    "value": [
      6000
    ],
    "statsDefinition": "modelled",
    "model": {
      "@type": "Term",
      "@id": "pooreNemecek2018"
    }
  }
]
