[
  {
    "@type": "Product",
    "term": {
      "@type": "Term",
      "@id": "meatChickenLiveweight",
      "name": "Meat, chicken (liveweight)",
      "termType": "animalProduct",
      "units": "kg liveweight",
      "defaultProperties": [
        {
          "term": {
            "@type": "Term",
            "termType": "property",
            "@id": "processingConversionLiveweightToColdCarcassWeight",
            "units": "%"
          },
          "value": 72.30401869158878,
          "sd": 1.8045100716897102,
          "@type": "Property"
        },
        {
          "term": {
            "@type": "Term",
            "termType": "property",
            "@id": "processingConversionColdCarcassWeightToReadyToCookWeight",
            "units": "%"
          },
          "value": 72.45065789473684,
          "sd": 3.605314180391945,
          "@type": "Property"
        }
      ]
    },
    "primary": true,
    "properties": [
      {
        "@type": "Property",
        "term": {
          "@type": "Term",
          "@id": "liveweightPerHead"
        },
        "value": 2.88959508808912,
        "statsDefinition": "regions",
        "methodModel": {
          "@type": "Term",
          "@id": "faostat2018"
        }
      }
    ]
  }
]
