[
  {
    "@type": "Emission",
    "term": {
      "@type": "Term",
      "@id": "ch4ToAirCropResidueBurning"
    },
    "methodModel": {
      "@type": "Term",
      "@id": "emissionNotRelevant"
    },
    "value": [
      0
    ],
    "methodTier": "not relevant"
  }
]
