{
  "id": "fake-impact",
  "type": "ImpactAssessment",
  "allocationMethod": "none required",
  "country": {
    "@id": "GADM-AUS",
    "@type": "Term",
    "name": "Australia",
    "termType": "region"
  },
  "cycle": {
    "id": "fake-cycle",
    "type": "Cycle",
    "functionalUnit": "1 ha",
    "site": {
      "id": "fake-site",
      "type": "Site",
      "siteType": "animal housing"
    },
    "inputs": [
      {
        "term": {
          "@type": "Term",
          "name": "Wheat, grain",
          "termType": "crop",
          "@id": "wheatGrain",
          "units": "kg"
        },
        "value": [
          40
        ],
        "@type": "Input",
        "impactAssessment": {
          "@id": "wheatGrain-australia-2001-2010",
          "@type": "ImpactAssessment"
        },
        "impactAssessmentIsProxy": true
      },
      {
        "term": {
          "@type": "Term",
          "name": "Diesel",
          "termType": "fuel",
          "@id": "diesel",
          "units": "kg"
        },
        "value": [
          18.148
        ],
        "@type": "Input",
        "impactAssessment": {
          "@id": "lepizrv6wt5h",
          "@type": "ImpactAssessment"
        },
        "impactAssessmentIsProxy": true
      },
      {
        "term": {
          "@id": "waterPumpedGroundwater",
          "@type": "Term",
          "name": "Water, Pumped ground water",
          "units": "mm",
          "termType": "water"
        },
        "value": [
          114.5
        ],
        "@type": "Input"
      }
    ],
    "defaultMethodClassificationDescription": "description"
  },
  "endDate": "2010",
  "functionalUnitQuantity": 1,
  "product": {
    "term": {
      "@type": "Term",
      "name": "Cereals, grain",
      "termType": "crop",
      "@id": "cerealGrain",
      "units": "kg"
    },
    "value": [
      2900
    ],
    "economicValueShare": 100,
    "primary": true,
    "@type": "Product"
  },
  "source": {
    "id": "fake-source",
    "type": "Source"
  },
  "dataPrivate": false
}
