[
  {
    "term": {
      "@id": "nh3ToAirCropResidueBurning",
      "@type": "Term"
    },
    "value": [
      0.217
    ],
    "methodTier": "tier 1",
    "@type": "Emission",
    "methodModel": {
      "@type": "Term",
      "@id": "akagiEtAl2011AndIpcc2006"
    },
    "statsDefinition": "modelled"
  }
]
