{
  "@type": "Indicator",
  "term": {
    "@type": "Term",
    "@id": "freshwaterAquaticEcotoxicityPotential14Dcbeq"
  },
  "methodModel": {
    "@type": "Term",
    "@id": "recipe2016Egalitarian"
  },
  "value": 3.316355048285078e-7
}
