{
  "@type": "Indicator",
  "term": {
    "@type": "Term",
    "@id": "damageToHumanHealthParticulateMatterFormation"
  },
  "methodModel": {
    "@type": "Term",
    "@id": "lcImpactCertainEffectsInfinite"
  },
  "value": 8.609999999999999e-10
}
