[
  {
    "@type": "Measurement",
    "term": {
      "@type": "Term",
      "@id": "organicCarbonPerKgSoil"
    },
    "value": [
      50
    ],
    "min": [
      40
    ],
    "max": [
      71.42857142857143
    ],
    "statsDefinition": "modelled",
    "methodClassification": "modelled using other physical measurements"
  }
]
