[
  {
    "term": {
      "@id": "landTransformationFromForest20YearAverageDuringCycle",
      "@type": "Term"
    },
    "value": 0.08983659655172413,
    "@type": "Indicator",
    "methodModel": {
      "@type": "Term",
      "@id": "blonkConsultants2016"
    }
  }
]
