{
  "id": "fake-cycle",
  "type": "Cycle",
  "name": "fake cycle",
  "dataPrivate": true,
  "functionalUnit": "1 ha",
  "endDate": "2009",
  "cycleDuration": 365,
  "site": {
    "id": "fake-site",
    "type": "Site"
  },
  "inputs": [
    {
      "@type": "Input",
      "term": {
        "@type": "Term",
        "@id": "sorghumGrain",
        "termType": "crop"
      },
      "value": [
        434
      ]
    },
    {
      "@type": "Input",
      "term": {
        "@type": "Term",
        "@id": "wheatGrain",
        "termType": "crop"
      },
      "value": [
        204.2
      ]
    },
    {
      "@type": "Input",
      "term": {
        "@type": "Term",
        "@id": "soybeanMeal",
        "termType": "crop"
      },
      "value": [
        37.72
      ]
    },
    {
      "@type": "Input",
      "term": {
        "@type": "Term",
        "@id": "rapeseedMeal",
        "termType": "crop"
      },
      "value": [
        40.8
      ]
    }
  ],
  "products": [
    {
      "@type": "Product",
      "term": {
        "@type": "Term",
        "@id": "concentrateFeedBlend"
      },
      "primary": true
    }
  ],
  "completeness": {
    "@type": "Completeness",
    "electricityFuel": true,
    "material": true,
    "fertiliser": true,
    "other": true,
    "pesticidesAntibiotics": true,
    "soilAmendments": true,
    "water": true,
    "products": true,
    "cropResidue": true,
    "animalFeed": true,
    "transport": false,
    "excreta": true,
    "waste": true,
    "liveAnimals": true,
    "operations": true
  },
  "defaultMethodClassification": "modelled",
  "defaultMethodClassificationDescription": "description"
}
