[
  {
    "term": {
      "@id": "landTransformationFromForest20YearAverageDuringCycle",
      "@type": "Term"
    },
    "value": 1.974322,
    "@type": "Indicator",
    "methodModel": {
      "@type": "Term",
      "@id": "hyde32"
    }
  }
]
