[
  {
    "term": {
      "@id": "co2ToAirOrganicSoilCultivation",
      "@type": "Term"
    },
    "value": [
      2.1999999999999997
    ],
    "methodTier": "tier 1",
    "@type": "Emission",
    "methodModel": {
      "@type": "Term",
      "@id": "ipcc2006"
    },
    "statsDefinition": "modelled"
  }
]
