{
  "@type": "Indicator",
  "term": {
    "@type": "Term",
    "@id": "freshwaterEcotoxicityPotentialCtue"
  },
  "methodModel": {
    "@type": "Term",
    "@id": "environmentalFootprintV3"
  },
  "value": 10.926984250567815
}
