[
  {
    "@type": "Emission",
    "term": {
      "@type": "Term",
      "@id": "nh3ToAirInputsProduction"
    },
    "methodModel": {
      "@type": "Term",
      "@id": "ecoinventV3"
    },
    "value": [
      0.000595
    ],
    "methodTier": "background",
    "inputs": [
      {
        "@type": "Term",
        "name": "Urea (kg N)",
        "termType": "inorganicFertiliser",
        "@id": "ureaKgN",
        "units": "kg N"
      }
    ]
  },
  {
    "@type": "Emission",
    "term": {
      "@type": "Term",
      "@id": "co2ToAirInputsProduction"
    },
    "methodModel": {
      "@type": "Term",
      "@id": "ecoinventV3"
    },
    "value": [
      14.0
    ],
    "methodTier": "background",
    "inputs": [
      {
        "@type": "Term",
        "name": "Urea (kg N)",
        "termType": "inorganicFertiliser",
        "@id": "ureaKgN",
        "units": "kg N"
      }
    ]
  },
  {
    "@type": "Emission",
    "term": {
      "@type": "Term",
      "@id": "n2OToAirInputsProduction"
    },
    "methodModel": {
      "@type": "Term",
      "@id": "ecoinventV3"
    },
    "value": [
      0.000161
    ],
    "methodTier": "background",
    "inputs": [
      {
        "@type": "Term",
        "name": "Urea (kg N)",
        "termType": "inorganicFertiliser",
        "@id": "ureaKgN",
        "units": "kg N"
      }
    ]
  },
  {
    "@type": "Emission",
    "term": {
      "@type": "Term",
      "@id": "ch4ToAirInputsProductionFossil"
    },
    "methodModel": {
      "@type": "Term",
      "@id": "ecoinventV3"
    },
    "value": [
      0.07
    ],
    "methodTier": "background",
    "inputs": [
      {
        "@type": "Term",
        "name": "Urea (kg N)",
        "termType": "inorganicFertiliser",
        "@id": "ureaKgN",
        "units": "kg N"
      }
    ]
  },
  {
    "@type": "Emission",
    "term": {
      "@type": "Term",
      "@id": "ch4ToAirInputsProductionNonFossil"
    },
    "methodModel": {
      "@type": "Term",
      "@id": "ecoinventV3"
    },
    "value": [
      0.000308
    ],
    "methodTier": "background",
    "inputs": [
      {
        "@type": "Term",
        "name": "Urea (kg N)",
        "termType": "inorganicFertiliser",
        "@id": "ureaKgN",
        "units": "kg N"
      }
    ]
  },
  {
    "@type": "Emission",
    "term": {
      "@type": "Term",
      "@id": "noxToAirInputsProduction"
    },
    "methodModel": {
      "@type": "Term",
      "@id": "ecoinventV3"
    },
    "value": [
      0.35000000000000003
    ],
    "methodTier": "background",
    "inputs": [
      {
        "@type": "Term",
        "name": "Urea (kg N)",
        "termType": "inorganicFertiliser",
        "@id": "ureaKgN",
        "units": "kg N"
      }
    ]
  },
  {
    "@type": "Emission",
    "term": {
      "@type": "Term",
      "@id": "so2ToAirInputsProduction"
    },
    "methodModel": {
      "@type": "Term",
      "@id": "ecoinventV3"
    },
    "value": [
      0.041999999999999996
    ],
    "methodTier": "background",
    "inputs": [
      {
        "@type": "Term",
        "name": "Urea (kg N)",
        "termType": "inorganicFertiliser",
        "@id": "ureaKgN",
        "units": "kg N"
      }
    ]
  },
  {
    "@type": "Emission",
    "term": {
      "@type": "Term",
      "@id": "bromochlorodifluoromethaneToAirInputsProduction"
    },
    "methodModel": {
      "@type": "Term",
      "@id": "ecoinventV3"
    },
    "value": [
      7.7e-09
    ],
    "methodTier": "background",
    "inputs": [
      {
        "@type": "Term",
        "name": "Urea (kg N)",
        "termType": "inorganicFertiliser",
        "@id": "ureaKgN",
        "units": "kg N"
      }
    ]
  },
  {
    "@type": "Emission",
    "term": {
      "@type": "Term",
      "@id": "chlorodifluoromethaneToAirInputsProduction"
    },
    "methodModel": {
      "@type": "Term",
      "@id": "ecoinventV3"
    },
    "value": [
      6.09e-07
    ],
    "methodTier": "background",
    "inputs": [
      {
        "@type": "Term",
        "name": "Urea (kg N)",
        "termType": "inorganicFertiliser",
        "@id": "ureaKgN",
        "units": "kg N"
      }
    ]
  },
  {
    "@type": "Emission",
    "term": {
      "@type": "Term",
      "@id": "dichlorodifluoromethaneToAirInputsProduction"
    },
    "methodModel": {
      "@type": "Term",
      "@id": "ecoinventV3"
    },
    "value": [
      2.45e-07
    ],
    "methodTier": "background",
    "inputs": [
      {
        "@type": "Term",
        "name": "Urea (kg N)",
        "termType": "inorganicFertiliser",
        "@id": "ureaKgN",
        "units": "kg N"
      }
    ]
  },
  {
    "@type": "Emission",
    "term": {
      "@type": "Term",
      "@id": "112TrichlorotrifluoroethaneToAirInputsProduction"
    },
    "methodModel": {
      "@type": "Term",
      "@id": "ecoinventV3"
    },
    "value": [
      2.03e-06
    ],
    "methodTier": "background",
    "inputs": [
      {
        "@type": "Term",
        "name": "Urea (kg N)",
        "termType": "inorganicFertiliser",
        "@id": "ureaKgN",
        "units": "kg N"
      }
    ]
  },
  {
    "@type": "Emission",
    "term": {
      "@type": "Term",
      "@id": "11DichlorotetrafluoroethaneToAirInputsProduction"
    },
    "methodModel": {
      "@type": "Term",
      "@id": "ecoinventV3"
    },
    "value": [
      4.27e-08
    ],
    "methodTier": "background",
    "inputs": [
      {
        "@type": "Term",
        "name": "Urea (kg N)",
        "termType": "inorganicFertiliser",
        "@id": "ureaKgN",
        "units": "kg N"
      }
    ]
  }
]
