{
  "id": "fake-cycle",
  "type": "Cycle",
  "name": "fake cycle",
  "functionalUnit": "relative",
  "defaultSource": {
    "id": "fake-source",
    "type": "Source"
  },
  "dataPrivate": false,
  "site": {
    "id": "fake-site",
    "type": "Site",
    "siteType": "river or stream",
    "country": {
      "@type": "Term",
      "name": "Peru",
      "termType": "region",
      "@id": "GADM-PER"
    },
    "measurements": [
      {
        "term": {
          "@type": "Term",
          "termType": "measurement",
          "@id": "ecoClimateZone"
        },
        "value": [
          12
        ],
        "@type": "Measurement",
        "methodClassification": "unsourced assumption"
      }
    ]
  },
  "endDate": "2009",
  "cycleDuration": 100,
  "inputs": [
    {
      "term": {
        "@type": "Term",
        "name": "Excreta, poultry (kg VS)",
        "termType": "excreta",
        "@id": "excretaPoultryKgVs",
        "units": "kg VS"
      },
      "value": [
        0.47187463033985794
      ],
      "@type": "Input"
    }
  ],
  "products": [
    {
      "term": {
        "@type": "Term",
        "name": "Excreta, poultry (kg N)",
        "termType": "excreta",
        "@id": "excretaPoultryKgN",
        "units": "kg N"
      },
      "@type": "Product"
    }
  ],
  "practices": [
    {
      "@type": "Practice",
      "term": {
        "@type": "Term",
        "name": "Poultry manure with litter",
        "termType": "excretaManagement",
        "@id": "poultryManureWithLitter"
      }
    }
  ],
  "completeness": {
    "@type": "Completeness",
    "electricityFuel": true,
    "material": true,
    "fertiliser": true,
    "other": true,
    "pesticidesAntibiotics": true,
    "soilAmendments": true,
    "water": true,
    "products": true,
    "cropResidue": true,
    "animalFeed": true,
    "transport": false,
    "excreta": true,
    "waste": true,
    "liveAnimals": true,
    "operations": true
  },
  "defaultMethodClassification": "modelled",
  "defaultMethodClassificationDescription": "description"
}
