{
  "id": "fake-cycle",
  "type": "Cycle",
  "name": "Wheat, grain - Nepal - 2010-12",
  "dataPrivate": false,
  "functionalUnit": "1 ha",
  "endDate": "2009",
  "cycleDuration": 365,
  "defaultSource": {
    "id": "fake-source",
    "type": "Source"
  },
  "site": {
    "id": "fake-site",
    "type": "Site",
    "siteType": "cropland",
    "country": {
      "@id": "GADM-NPL",
      "@type": "Term",
      "name": "Nepal",
      "termType": "region"
    },
    "description": "Farmers field",
    "measurements": [
      {
        "term": {
          "@id": "totalNitrogenPerKgSoil",
          "@type": "Term",
          "name": "Soil total nitrogen content",
          "termType": "measurement"
        },
        "value": [
          2.4099999999999997
        ],
        "@type": "Measurement",
        "methodClassification": "unsourced assumption"
      },
      {
        "term": {
          "@id": "organicCarbonPerKgSoil",
          "@type": "Term",
          "name": "Soil organic carbon content",
          "termType": "measurement"
        },
        "value": [
          5.8
        ],
        "depthLower": 30,
        "depthUpper": 0,
        "@type": "Measurement",
        "methodClassification": "unsourced assumption"
      },
      {
        "term": {
          "@id": "totalPhosphorusPerKgSoil",
          "@type": "Term",
          "name": "Total phosphorus (per kg soil)",
          "termType": "measurement"
        },
        "value": [
          0.35275
        ],
        "depthLower": 50,
        "depthUpper": 0,
        "@type": "Measurement",
        "methodClassification": "unsourced assumption"
      },
      {
        "term": {
          "@id": "slopeLength",
          "@type": "Term",
          "name": "Slope length",
          "termType": "measurement"
        },
        "value": [
          2.06439
        ],
        "@type": "Measurement",
        "methodClassification": "unsourced assumption"
      },
      {
        "term": {
          "@id": "slope",
          "@type": "Term",
          "name": "Slope",
          "termType": "measurement"
        },
        "value": [
          0
        ],
        "@type": "Measurement",
        "methodClassification": "unsourced assumption"
      },
      {
        "term": {
          "@id": "nutrientLossToAquaticEnvironment",
          "@type": "Term",
          "name": "Nutrient loss to aquatic environment",
          "termType": "measurement"
        },
        "value": [
          15
        ],
        "@type": "Measurement",
        "methodClassification": "unsourced assumption"
      },
      {
        "term": {
          "@id": "erodibility",
          "@type": "Term",
          "name": "Erodibility",
          "termType": "measurement"
        },
        "value": [
          0.03287
        ],
        "@type": "Measurement",
        "methodClassification": "unsourced assumption"
      },
      {
        "term": {
          "@id": "precipitationAnnual",
          "@type": "Term",
          "name": "Annual precipitation (long-term mean)",
          "termType": "measurement"
        },
        "value": [
          1481
        ],
        "@type": "Measurement",
        "methodClassification": "unsourced assumption"
      },
      {
        "term": {
          "@id": "heavyWinterPrecipitation",
          "@type": "Term",
          "name": "Heavy winter precipitation",
          "termType": "measurement"
        },
        "value": [
          1
        ],
        "@type": "Measurement",
        "methodClassification": "unsourced assumption"
      }
    ]
  },
  "products": [
    {
      "term": {
        "@id": "wheatGrain",
        "@type": "Term",
        "name": "Wheat, grain",
        "units": "kg",
        "termType": "crop"
      },
      "value": [
        2231.5
      ],
      "primary": true,
      "economicValueShare": 91.18,
      "@type": "Product"
    }
  ],
  "practices": [
    {
      "term": {
        "@id": "fullTillage",
        "@type": "Term",
        "name": "Full tillage",
        "termType": "tillage"
      },
      "@type": "Practice"
    }
  ],
  "inputs": [
    {
      "term": {
        "@id": "waterPumpedGroundwater",
        "@type": "Term",
        "name": "Water, Pumped ground water",
        "units": "mm",
        "termType": "water"
      },
      "value": [
        1145
      ],
      "@type": "Input"
    }
  ],
  "completeness": {
    "electricityFuel": true,
    "material": true,
    "fertiliser": true,
    "other": true,
    "soilAmendments": true,
    "pesticidesAntibiotics": true,
    "water": true,
    "products": true,
    "cropResidue": false,
    "animalFeed": false,
    "@type": "Completeness",
    "transport": false,
    "excreta": true,
    "waste": true,
    "liveAnimals": true,
    "operations": true
  },
  "defaultMethodClassification": "modelled",
  "defaultMethodClassificationDescription": "description"
}
