{
  "@type": "Indicator",
  "term": {
    "@type": "Term",
    "@id": "damageToTerrestrialEcosystemsTerrestrialEcotoxicity"
  },
  "methodModel": {
    "@type": "Term",
    "@id": "lcImpactAllEffects100Years"
  },
  "value": 0.0001290108246495855
}
