[
  {
    "term": {
      "@id": "noxToAirInorganicFertiliser",
      "@type": "Term"
    },
    "value": [
      0.44356924637636075
    ],
    "methodTier": "tier 2",
    "@type": "Emission",
    "methodModel": {
      "@type": "Term",
      "@id": "stehfestBouwman2006"
    },
    "statsDefinition": "modelled"
  }
]
