{
  "@type": "Measurement",
  "term": {
    "@type": "Term",
    "@id": "waterDepth"
  },
  "value": [
    40
  ],
  "statsDefinition": "modelled",
  "methodClassification": "modelled using other physical measurements"
}
