{
  "id": "fake-cycle",
  "type": "Cycle",
  "name": "fake cycle",
  "functionalUnit": "1 ha",
  "defaultSource": {
    "id": "fake-source",
    "type": "Source"
  },
  "dataPrivate": false,
  "startDateDefinition": "start of year",
  "endDate": "2009-01-01",
  "cycleDuration": 150,
  "site": {
    "id": "fake-site",
    "type": "Site"
  },
  "transformations": [
    {
      "@type": "Transformation",
      "transformationId": "tr-1",
      "term": {
        "@id": "dryLot",
        "@type": "Term",
        "name": "Dry lot",
        "termType": "excretaManagement"
      },
      "transformationDuration": 300
    },
    {
      "@type": "Transformation",
      "transformationId": "tr-2",
      "term": {
        "@id": "compostingInVessel",
        "@type": "Term",
        "name": "Composting - In Vessel",
        "termType": "excretaManagement"
      },
      "transformationDuration": 300,
      "previousTransformationId": "tr-1",
      "inputs": [
        {
          "@type": "Input",
          "term": {
            "@id": "excretaBeefCattleFeedlotFedKgN",
            "@type": "Term",
            "name": "Excreta, beef cattle, feedlot fed (kg N)",
            "units": "kg N",
            "termType": "excreta"
          },
          "value": [
            150
          ],
          "fromCycle": true
        },
        {
          "@type": "Input",
          "term": {
            "@id": "rapeseedStraw",
            "@type": "Term",
            "name": "Rapeseed, straw",
            "units": "kg",
            "termType": "crop"
          },
          "value": [
            25
          ],
          "fromCycle": true
        }
      ],
      "emissions": [
        {
          "@type": "Emission",
          "term": {
            "@id": "ch4ToAirExcreta",
            "@type": "Term",
            "name": "CH4, to air, excreta",
            "units": "kg CH4",
            "termType": "emission"
          },
          "value": [
            8.7
          ],
          "methodModel": {
            "@id": "emepEea2019",
            "@type": "Term",
            "name": "EMEA-EEA (2019)",
            "termType": "model"
          },
          "methodTier": "tier 2"
        }
      ],
      "products": [
        {
          "@type": "Product",
          "term": {
            "@id": "excretaMixturesKgN",
            "@type": "Term",
            "name": "Excreta mixtures (kg N)",
            "units": "kg N",
            "termType": "excreta"
          },
          "value": [
            160
          ]
        }
      ]
    }
  ],
  "completeness": {
    "@type": "Completeness",
    "electricityFuel": true,
    "material": true,
    "fertiliser": true,
    "other": true,
    "pesticidesAntibiotics": true,
    "soilAmendments": true,
    "water": true,
    "products": true,
    "cropResidue": true,
    "animalFeed": true,
    "transport": false,
    "excreta": true,
    "waste": true,
    "liveAnimals": true,
    "operations": true
  },
  "defaultMethodClassification": "modelled",
  "defaultMethodClassificationDescription": "description"
}
