{
  "@type": "Indicator",
  "term": {
    "@type": "Term",
    "@id": "fossilResourceScarcity"
  },
  "methodModel": {
    "@type": "Term",
    "@id": "recipe2016Individualist"
  },
  "value": 0.0008344827586206899
}
