[
  {
    "@type": "Product",
    "term": {
      "@type": "Term",
      "@id": "aboveGroundCropResidueTotal"
    },
    "value": [
      26744.899999999998
    ],
    "statsDefinition": "modelled"
  }
]
