[
  {
    "@type": "Product",
    "term": {
      "@type": "Term",
      "@id": "belowGroundCropResidue"
    },
    "value": [
      0
    ],
    "economicValueShare": 0,
    "revenue": 0,
    "currency": "USD",
    "statsDefinition": "modelled",
    "model": {
      "@type": "Term",
      "@id": "pooreNemecek2018"
    }
  }
]
