{
  "@type": "Indicator",
  "term": {
    "@type": "Term",
    "@id": "terrestrialAcidificationPotentialIncludingFateAverageEurope"
  },
  "methodModel": {
    "@type": "Term",
    "@id": "cml2001Baseline"
  },
  "value": 0.014452863548208626
}
