{
  "@type": "Indicator",
  "term": {
    "@type": "Term",
    "@id": "damageToTerrestrialEcosystemsLandOccupation"
  },
  "methodModel": {
    "@type": "Term",
    "@id": "chaudharyBrooks2018"
  },
  "value": 1.890665711898665e-11
}
