[
  {
    "@type": "Measurement",
    "term": {
      "@type": "Term",
      "@id": "cationExchangeCapacityPerKgSoil"
    },
    "value": [
      6.02
    ],
    "statsDefinition": "modelled",
    "methodClassification": "modelled using other physical measurements"
  },
  {
    "@type": "Measurement",
    "term": {
      "@type": "Term",
      "@id": "cationExchangeCapacityPerKgSoil"
    },
    "value": [
      11.8392
    ],
    "depthUpper": 0,
    "depthLower": 30,
    "statsDefinition": "modelled",
    "methodClassification": "modelled using other physical measurements"
  }
]
