{
  "@type": "Indicator",
  "term": {
    "@type": "Term",
    "@id": "marineAquaticEcotoxicityPotential14Dcbeq"
  },
  "methodModel": {
    "@type": "Term",
    "@id": "recipe2016Hierarchist"
  },
  "value": 0.00033607690120636164
}
