{
  "id": "fake-cycle",
  "type": "Cycle",
  "site": {
    "id": "fake-site",
    "type": "Site"
  },
  "defaultSource": {
    "id": "fake-source",
    "type": "Source"
  },
  "endDate": "2006-05-01",
  "functionalUnit": "1 ha",
  "startDate": "2005-05-01",
  "startDateDefinition": "sowing date",
  "practices": [
    {
      "term": {
        "@type": "Term",
        "name": "Residue burnt",
        "termType": "cropResidueManagement",
        "@id": "residueBurnt",
        "units": "percent"
      },
      "value": [
        0
      ],
      "@type": "Practice"
    }
  ],
  "inputs": [
    {
      "term": {
        "@type": "Term",
        "name": "Urea (kg N)",
        "termType": "inorganicFertiliser",
        "@id": "ureaKgN",
        "units": "kg N"
      },
      "value": [
        25,
        75
      ],
      "dates": [
        "2005-05-01",
        "2005-06-12"
      ],
      "@type": "Input"
    },
    {
      "term": {
        "@type": "Term",
        "name": "Single Super Phosphate (kg P2O5)",
        "termType": "inorganicFertiliser",
        "@id": "singleSuperPhosphateKgP2O5",
        "units": "kg P2O5"
      },
      "@type": "Input"
    }
  ],
  "products": [
    {
      "term": {
        "@type": "Term",
        "name": "Wheat, grain",
        "termType": "crop",
        "@id": "wheatGrain",
        "units": "kg"
      },
      "value": [
        2700
      ],
      "primary": true,
      "@type": "Product"
    }
  ],
  "cycleDuration": 365,
  "name": "fake-cycle",
  "dataPrivate": false,
  "completeness": {
    "fertiliser": false,
    "soilAmendments": true,
    "pesticidesAntibiotics": false,
    "water": true,
    "electricityFuel": false,
    "products": true,
    "cropResidue": false,
    "other": false,
    "material": false,
    "animalFeed": true,
    "@type": "Completeness",
    "transport": false,
    "excreta": false,
    "waste": true,
    "liveAnimals": true,
    "operations": true
  },
  "defaultMethodClassification": "modelled",
  "defaultMethodClassificationDescription": "description"
}
